<?xml version="1.0" encoding="UTF-8"?>
<glyph name="ntilde" format="2">
	<advance width="712"/>
	<unicode hex="00F1"/>
	<note>
		ntilde
  </note>
	<outline>
		<contour>
			<point x="46" y="15" type="curve"/>
			<point x="46" y="3" type="line"/>
			<point x="92" y="16"/>
			<point x="130" y="21"/>
			<point x="165" y="21" type="curve"/>
			<point x="211" y="21"/>
			<point x="252" y="13"/>
			<point x="298" y="3" type="curve"/>
			<point x="298" y="15" type="line"/>
			<point x="228" y="29"/>
			<point x="226" y="81"/>
			<point x="226" y="205" type="curve"/>
			<point x="226" y="207"/>
			<point x="225" y="432"/>
			<point x="394" y="432" type="curve"/>
			<point x="450" y="432"/>
			<point x="488" y="377"/>
			<point x="488" y="293" type="curve"/>
			<point x="488" y="234" type="line" smooth="yes"/>
			<point x="488" y="103"/>
			<point x="490" y="29"/>
			<point x="416" y="15" type="curve"/>
			<point x="416" y="3" type="line"/>
			<point x="450" y="18"/>
			<point x="489" y="23"/>
			<point x="526" y="23" type="curve"/>
			<point x="600" y="23"/>
			<point x="666" y="3"/>
			<point x="668" y="3" type="curve"/>
			<point x="668" y="15" type="line"/>
			<point x="560" y="31"/>
			<point x="556" y="101"/>
			<point x="556" y="225" type="curve"/>
			<point x="556" y="311" type="line" smooth="yes"/>
			<point x="556" y="428"/>
			<point x="481" y="460"/>
			<point x="413" y="460" type="curve"/>
			<point x="300" y="460"/>
			<point x="248" y="374"/>
			<point x="225" y="304" type="curve"/>
			<point x="225" y="440" type="line"/>
			<point x="206" y="440" type="line"/>
			<point x="161" y="406"/>
			<point x="113" y="388"/>
			<point x="46" y="388" type="curve"/>
			<point x="46" y="376" type="line"/>
			<point x="155" y="359"/>
			<point x="158" y="360"/>
			<point x="158" y="234" type="curve"/>
			<point x="158" y="103"/>
			<point x="157" y="32"/>
		</contour>
		<contour>
			<point x="118" y="547" type="curve"/>
			<point x="135" y="545" type="line"/>
			<point x="135" y="572"/>
			<point x="189" y="627"/>
			<point x="239" y="627" type="curve"/>
			<point x="290" y="627"/>
			<point x="331" y="545"/>
			<point x="408" y="545" type="curve"/>
			<point x="476" y="545"/>
			<point x="535" y="657"/>
			<point x="535" y="657" type="curve"/>
			<point x="524" y="671" type="line"/>
			<point x="524" y="671"/>
			<point x="460" y="586"/>
			<point x="405" y="586" type="curve"/>
			<point x="349" y="586"/>
			<point x="322" y="675"/>
			<point x="240" y="675" type="curve"/>
			<point x="142" y="675"/>
			<point x="118" y="547"/>
		</contour>
	</outline>
</glyph>
